Data624_HW5
…
fit1_train %>%
          accuracy()

## # A tibble: 1 x 12
##   State  Industry   .model .type    ME  RMSE   MAE   MPE  MAPE  MASE RMSSE  ACF1
##   <chr>  <chr>      <chr>  <chr> <dbl> <dbl> <dbl> <dbl> <dbl> <dbl> <dbl> <dbl>
## 1 Tasma~ Clothing,~ SNAIV~ Trai~ 0.532  1.76  1.37  3.03  8.57     1     1 0.597

Exercise 9. For the same retail data, try an STL decomposition applied to the Box-Cox transformed series, followed by ETS on the seasonally adjusted data. How does that compare with your best previous forecasts on the test set?

dcmp <- train %>%
  model(stl = STL(Turnover))
components(dcmp)

## # A dable: 345 x 9 [1M]
## # Key:     State, Industry, .model [1]
## # :        Turnover = trend + season_year + remainder
##    State  Industry          .model    Month Turnover trend season_year remainder
##    <chr>  <chr>             <chr>     <mth>    <dbl> <dbl>       <dbl>     <dbl>
##  1 Tasma~ Clothing, footwe~ stl    1982 Apr      8.7  8.69     -0.0948    0.101 
##  2 Tasma~ Clothing, footwe~ stl    1982 May      9.3  8.67      0.685    -0.0588
##  3 Tasma~ Clothing, footwe~ stl    1982 Jun      8.6  8.65     -0.158     0.104 
##  4 Tasma~ Clothing, footwe~ stl    1982 Jul      8.9  8.63     -0.296     0.561 
##  5 Tasma~ Clothing, footwe~ stl    1982 Aug      7.5  8.62     -1.09     -0.0312
##  6 Tasma~ Clothing, footwe~ stl    1982 Sep      7.5  8.61     -1.16      0.0500
##  7 Tasma~ Clothing, footwe~ stl    1982 Oct      7    8.60     -0.790    -0.807 
##  8 Tasma~ Clothing, footwe~ stl    1982 Nov      9    8.59      0.333     0.0803
##  9 Tasma~ Clothing, footwe~ stl    1982 Dec     13.8  8.58      5.60     -0.372 
## 10 Tasma~ Clothing, footwe~ stl    1983 Jan      6.8  8.57     -1.51     -0.257 
## # ... with 335 more rows, and 1 more variable: season_adjust <dbl>
…
